{
  "project_info": {
    "project_number": "380225804290",
    "firebase_url": "https://blackjack-d367a.firebaseio.com",
    "project_id": "blackjack-d367a",
    "storage_bucket": "blackjack-d367a.appspot.com"
  },
  "client": [
    {
      "client_info": {
        "mobilesdk_app_id": "1:380225804290:android:79fe6ae0561209d4",
        "android_client_info": {
          "package_name": "com.example.cse438.blackjack"
        }
      },
      "oauth_client": [
        {
          "client_id": "380225804290-dpme7j4vm0vtht8cbhlvjehldav8bvvu.apps.googleusercontent.com",
          "client_type": 3
        }
      ],
      "api_key": [
        {
          "current_key": "AIzaSyBeOLHaag5Q5yWMY8nJXqTkeeyfw0Nk_pU"
        }
      ],
      "services": {
        "analytics_service": {
          "status": 1
        },
        "appinvite_service": {
          "status": 1,
          "other_platform_oauth_client": []
        },
        "ads_service": {
          "status": 2
        }
      }
    }
  ],
  "configuration_version": "1"
}